
strategic_region={
	id=39
	name="STRATEGICREGION_39"
	provinces={
		207 216 223 233 236 248 277 289 290 294 304 306 318 323 331 342 347 354 358 360 386 387 400 406 535 560 3210 3219 3247 3254 3256 3267 3278 3281 3297 3309 3313 3320 3331 3333 3350 3362 3366 3378 3392 3393 3496 3556 3759 6220 6233 6242 6243 6249 6273 6280 6292 6293 6306 6326 6340 6354 6359 6371 6373 6387 6413 6415 6546 6579 9236 9241 9247 9253 9254 9274 9289 9295 9304 9323 9331 9341 9351 9353 9359 9371 9386 9396 9520 9844 11216 11220 11230 11234 11241 11247 11259 11271 11274 11285 11290 11301 11313 11322 11329 11336 11341 11342 11353 11357 11370 11391 11503 11528 13206 
	}
	weather={
		period={
			between={ 0.0 30.0 }
			temperature={ -20.0 5.0 }
			no_phenomenon=0.550
			rain_light=0.100
			rain_heavy=0.050
			snow=0.300
			blizzard=0.050
			arctic_water=0.000
			mud=1.400
			sandstorm=0.000
			min_snow_level=0.100
		}
		period={
			between={ 0.1 27.1 }
			temperature={ -19.0 6.0 }
			no_phenomenon=0.500
			rain_light=0.100
			rain_heavy=0.050
			snow=0.300
			blizzard=0.050
			arctic_water=0.000
			mud=1.400
			sandstorm=0.000
			min_snow_level=0.100
		}
		period={
			between={ 0.2 30.2 }
			temperature={ -12.0 10.0 }
			no_phenomenon=0.500
			rain_light=0.150
			rain_heavy=0.050
			snow=0.300
			blizzard=0.000
			arctic_water=0.000
			mud=1.400
			sandstorm=0.000
			min_snow_level=0.000
		}
		period={
			between={ 0.3 29.3 }
			temperature={ -1.0 16.0 }
			no_phenomenon=0.500
			rain_light=0.250
			rain_heavy=0.100
			snow=0.050
			blizzard=0.000
			arctic_water=0.000
			mud=1.400
			sandstorm=0.000
			min_snow_level=0.000
		}
		period={
			between={ 0.4 30.4 }
			temperature={ 5.0 23.0 }
			no_phenomenon=0.500
			rain_light=0.300
			rain_heavy=0.100
			snow=0.000
			blizzard=0.000
			arctic_water=0.000
			mud=1.400
			sandstorm=0.000
			min_snow_level=0.000
		}
		period={
			between={ 0.5 29.5 }
			temperature={ 9.0 25.0 }
			no_phenomenon=0.500
			rain_light=0.250
			rain_heavy=0.150
			snow=0.000
			blizzard=0.000
			arctic_water=0.000
			mud=1.400
			sandstorm=0.000
			min_snow_level=0.000
		}
		period={
			between={ 0.6 30.6 }
			temperature={ 11.0 27.0 }
			no_phenomenon=0.500
			rain_light=0.250
			rain_heavy=0.150
			snow=0.000
			blizzard=0.000
			arctic_water=0.000
			mud=1.400
			sandstorm=0.000
			min_snow_level=0.000
		}
		period={
			between={ 0.7 30.7 }
			temperature={ 10.0 26.0 }
			no_phenomenon=0.550
			rain_light=0.250
			rain_heavy=0.150
			snow=0.000
			blizzard=0.000
			arctic_water=0.000
			mud=1.400
			sandstorm=0.000
			min_snow_level=0.000
		}
		period={
			between={ 0.8 29.8 }
			temperature={ 5.0 21.0 }
			no_phenomenon=0.550
			rain_light=0.250
			rain_heavy=0.150
			snow=0.000
			blizzard=0.000
			arctic_water=0.000
			mud=1.400
			sandstorm=0.000
			min_snow_level=0.000
		}
		period={
			between={ 0.9 30.9 }
			temperature={ -2.0 16.0 }
			no_phenomenon=0.450
			rain_light=0.200
			rain_heavy=0.100
			snow=0.050
			blizzard=0.000
			arctic_water=0.000
			mud=1.400
			sandstorm=0.000
			min_snow_level=0.000
		}
		period={
			between={ 0.10 29.10 }
			temperature={ -9.0 10.0 }
			no_phenomenon=0.400
			rain_light=0.200
			rain_heavy=0.150
			snow=0.050
			blizzard=0.000
			arctic_water=0.000
			mud=1.400
			sandstorm=0.000
			min_snow_level=0.000
		}
		period={
			between={ 0.11 30.11 }
			temperature={ -14.0 8.0 }
			no_phenomenon=0.500
			rain_light=0.130
			rain_heavy=0.070
			snow=0.300
			blizzard=0.050
			arctic_water=0.000
			mud=1.400
			sandstorm=0.000
			min_snow_level=0.100
		}
	}
}
