sub_units = {
	recon = { #mounted cav
		abbreviation = "CREC"
		sprite = infantry
		map_icon_category = infantry
		priority = 0
		ai_priority = 0
		active = no

		type = {
			infantry
			support
		}

		group = support

		categories = {
			category_front_line
			category_support_battalions
			category_army
			category_recon
		}


		combat_width = 0

		#Size Definitions
		max_strength = 2
		max_organisation = 20
		default_morale = 0.3
		manpower = 500
		training_time = 120

		#Misc Abilities
		weight = 0.1
		supply_consumption = 0.02
		recon = 1
		can_be_parachuted = yes

		# Support nerfs to combat abilities
		defense = -0.5
		breakthrough = -0.9
		soft_attack = -0.9
		hard_attack = -0.9

		affects_speed = no

		essential = {
			infantry_equipment
			support_equipment
		}

		need = {
			infantry_equipment = 40
			support_equipment = 10
		}

		forest = {
			movement = 0.05
		}
		hills = {
			movement = 0.10
		}
		mountain = {
			movement = 0.10
		}
		jungle = {
			movement = 0.10
		}
		marsh = {
			movement = 0.10
		}
		plains = {
			movement = 0.05
		}
		desert = {
			movement = 0.05
		}
		river = {
			movement = 0.1
		}

		same_support_type = recon # blocks adding other recon types to template
	}

	mot_recon = { #trucks, motorcyles, ill-placed cars
		abbreviation = "MREC"
		sprite = infantry
		map_icon_category = infantry
		priority = 0
		ai_priority = 0
		active = no

		type = {
			infantry
			support
		}

		group = support

		categories = {
			category_front_line
			category_support_battalions
			category_army
			category_recon
		}


		combat_width = 0

		#Size Definitions
		max_strength 		= 2
		max_organisation 	= 20
		default_morale 		= 0.3
		manpower 			= 500
		training_time 		= 120

		#Misc Abilities
		weight 				= 0.1
		supply_consumption 	= 0.02
		recon 				= 1.5
		can_be_parachuted 	= yes

		# Support nerfs to combat abilities
		defense = -0.4
		breakthrough = -0.5
		soft_attack = -0.9
		hard_attack = -0.9

		essential = {
			infantry_equipment
			support_equipment
			motorized_equipment
		}

		affects_speed = no

		need = {
			infantry_equipment = 40
			support_equipment = 10
			motorized_equipment = 12
		}

		forest = {
			movement = 0.05
		}
		hills = {
			movement = 0.1
		}
		mountain = {
			movement = 0.1
		}
		jungle = {
			movement = 0.05
		}
		marsh = {
			movement = 0.1
		}
		plains = {
			movement = 0.15
		}
		desert = {
			movement = 0.15
		}
		river = {
			movement = 0.1
		}

		same_support_type = recon # blocks adding other recon types to template
	}

	armored_car_recon = { #armored_cars
		abbreviation = "AREC"
		sprite = infantry
		map_icon_category = infantry
		priority = 0
		ai_priority = 0
		active = no

		type = {
			infantry
			support
		}

		affects_speed = no
		
		group = support

		categories = {
			category_front_line
			category_support_battalions
			category_army
			category_recon
		}


		combat_width = 0

		#Size Definitions
		max_strength = 2
		max_organisation = 20
		default_morale = 0.3
		manpower = 500
		training_time = 120

		#Misc Abilities
		weight = 0.1
		supply_consumption = 0.02
		recon = 2
		can_be_parachuted = yes

		# Support nerfs to combat abilities
		breakthrough = 0
		defense = 0
		soft_attack = 12.5
		hard_attack = 39
		essential = {
			armored_car_equipment
		}

		need = {
			armored_car_equipment = 30
		}

		forest = {
			movement = 0.05
		}
		hills = {
			movement = 0.1
		}
		mountain = {
			movement = 0.05
		}
		jungle = {
			movement = 0.05
		}
		#marsh = {
			#	movement = 0.1
			#}
		plains = {
			movement = 0.15
		}
		desert = {
			attack = 0.05
			defence = 0.05
			movement = 0.2
		}
		river = {
			movement = 0.1
		}

		same_support_type = recon # blocks adding other recon types to template
	}

	light_tank_recon = { #light tanks
		abbreviation = "TREC"
		sprite = infantry
		map_icon_category = infantry
		priority = 0
		ai_priority = 0
		active = no

		type = {
			infantry
			support
		}

		group = support

		categories = {
			category_front_line
			category_support_battalions
			category_army
			category_all_armor
			category_recon
		}

		combat_width = 0

		#Size Definitions
		max_strength = 2
		max_organisation = 20
		default_morale = 0.3
		manpower = 500
		training_time = 120

		#Misc Abilities
		weight = 0.1
		supply_consumption = 0.02
		recon = 1
		can_be_parachuted = yes

		# Support nerfs to combat abilities
		armor_value = 0.6
		defense = 0.5
		breakthrough = 0.4
		soft_attack = 0.4
		hard_attack = 0.3
		essential = {
			light_tank_chassis
		}

		affects_speed = no
		
		need = {
			light_tank_chassis = 20
		}

		forest = {
			movement = 0.1
		}
		hills = {
			movement = 0.1
		}
		mountain = {
			movement = 0.1
		}
		jungle = {
			movement = 0.1
		}
		marsh = {
			movement = 0.1
		}
		plains = {
			movement = 0.1
		}
		desert = {
			movement = 0.1
		}
		river = {
			movement = 0.1
		}
		same_support_type = recon # blocks adding other recon types to template
	}
}
