
state={
	id=205
	name="STATE_205"

	history={
		owner = SOV
		buildings = {
			infrastructure = 5

		}
		add_core_of = SOV
		victory_points = {
			382 1 
		}

	}

	provinces={
		246 274 335 352 382 3263 3279 3308 3345 3377 6252 6365 9261 9272 9301 9318 9382 9399 11235 11254 11284 11300 11369 11384 
	}
	manpower=1121004
	buildings_max_level_factor=1.000
	state_category=town
	local_supplies=10.000
}
