state=
{
	id=530
	name="STATE_530" # Shikoku
	manpower = 3310000
	state_category = megalopolis
	history=
	{
		owner = JAP
		add_core_of = JAP
		buildings = {
			infrastructure = 7
			air_base = 3
			
			arms_factory = 1
			industrial_complex = 8

		}
		
		victory_points = {
			7197 10
		}
	}
	provinces={
		4094 4179 7046 7197 9965 11997 12028
	}

	local_supplies=0.0 
}
