
state={
	id=668
	name="STATE_668"
	manpower = 579100
	
	state_category = pastoral
	resources = {
		rubber = 5
	}
	history={
		set_demilitarized_zone = yes		
		owner = INS
		add_core_of = INS
		buildings = {
			infrastructure = 5
			1574 = {
				naval_base = 1
			}
			1351 = {
				naval_base = 1
			}
			7413 = {
				naval_base = 1
			}
			air_base = 5
		}
	}

	provinces={
		1351 1419 1437 1574 7369 7413 7557 10141 10342 10409 
	}

	local_supplies=0.0 
}
