equipments = {
    	mechanized_equipment = {
    		year = 1936
    		is_archetype = yes
    		picture = archetype_motorized_equipment
    		is_buildable = no
    		type = {
    			#infantry #Removing inf type
    			mechanized
    		}
    		group_by = archetype
			
    		interface_category = interface_category_land
			
    		#Misc Abilities
    		maximum_speed = 8.5
    		reliability = 0.8
			
    		#Defensive Abilities
    		defense = 16
    		breakthrough = 4
    		hardness = 0.5
    		armor_value = 20
			
    		#Offensive Abilities
    		ap_attack = 11
    		air_attack = 0
			
    		#Space taken in convoy
    		build_cost_ic = 8.5
			lend_lease_cost = 1.2   
    		resources = {
    			steel = 2
    			#oil = 1
    			rubber = 1
    		}
    		fuel_consumption = 2.4
    	}
    	# ~1941
    	mechanized_equipment_0 = {
    		year = 1940
    		archetype = mechanized_equipment
    		priority = 40
    		visual_level = 0
    		is_buildable = no
			can_license = no
		resources = {
    			steel = 20
    			#oil = 1
    			rubber = 30
    		}
		build_cost_ic = 6.6
    	}
    	mechanized_equipment_1 = {
    		year = 1940
    		archetype = mechanized_equipment
    		priority = 40
    		visual_level = 0
    	}
    	# ~1943
    	mechanized_equipment_2 = {
    		year = 1942
    		archetype = mechanized_equipment
    		parent = mechanized_equipment_1
    		priority = 40
    		visual_level = 1
    		maximum_speed = 10
			
    		#Defensive Abilities
    		defense = 21.85
    		breakthrough = 6
    		hardness = 0.55
    		armor_value = 25
			
    		#Offensive Abilities
    		ap_attack = 16
			soft_attack = 3.5
			
    		build_cost_ic = 9.5
			lend_lease_cost = 1.5   
    		resources = {
    			steel = 3
    			rubber = 1
    			#oil = 1
    		}
    	}
    	# ~1945
    	mechanized_equipment_3 = {
    		year = 1944
    		archetype = mechanized_equipment
    		parent = mechanized_equipment_2
    		priority = 40
    		visual_level = 2
    		maximum_speed = 12
			
    		#Defensive Abilities
    		defense = 28.5
    		breakthrough = 6
    		hardness = 0.6
    		armor_value = 30
			
    		#Offensive Abilities
    		ap_attack = 21
			soft_attack = 4
			
    		build_cost_ic = 11 
			lend_lease_cost = 2   
    		resources = {
    			steel = 4
    			rubber = 1
    			#oil = 2
    		}
    	}
    }

